{
  "docusaurusVersion": "2.0.0-alpha.71",
  "siteVersion": "0.0.0",
  "pluginVersions": {
    "docusaurus-plugin-content-pages": {
      "type": "package",
      "name": "@docusaurus/plugin-content-pages",
      "version": "2.0.0-alpha.71"
    },
    "docusaurus-plugin-content-blog": {
      "type": "package",
      "name": "@docusaurus/plugin-content-blog",
      "version": "2.0.0-alpha.71"
    },
    "docusaurus-plugin-content-docs": {
      "type": "package",
      "name": "@docusaurus/plugin-content-docs",
      "version": "2.0.0-alpha.71"
    },
    "docusaurus-theme-bootstrap": {
      "type": "package",
      "name": "@docusaurus/theme-bootstrap",
      "version": "2.0.0-alpha.71"
    }
  }
}